…
- ```R
  > library(ggplot2)
  > class(diamonds)
  [1] "tbl_df"     "tbl"        "data.frame"
  > diamonds
  # A tibble: 53,940 x 10
     carat cut       color clarity depth table price     x     y     z
     <dbl> <ord>     <ord> <ord>   <dbl> <dbl> <int> <dbl> <dbl> <dbl>
   1 0.23  Ideal     E     SI2      61.5    55   326  3.95  3.98  2.43
   2 0.21  Premium   E     SI1      59.8    61   326  3.89  3.84  2.31
   3 0.23  Good      E     VS1      56.9    65   327  4.05  4.07  2.31
   4 0.290 Premium   I     VS2      62.4    58   334  4.2   4.23  2.63
   5 0.31  Good      J     SI2      63.3    58   335  4.34  4.35  2.75
   6 0.24  Very Good J     VVS2     62.8    57   336  3.94  3.96  2.48
   7 0.24  Very Good I     VVS1     62.3    57   336  3.95  3.98  2.47
   8 0.26  Very Good H     SI1      61.9    55   337  4.07  4.11  2.53
   9 0.22  Fair      E     VS2      65.1    61   337  3.87  3.78  2.49
  10 0.23  Very Good H     VS1      59.4    61   338  4     4.05  2.39
  # ... with 53,930 more rows
…
### (2) 데이터 활용하기

#### 1) 열 추출하기

- ```R
  > diamonds[2,]
  # A tibble: 1 x 10
    carat cut     color clarity depth table price     x     y     z
    <dbl> <ord>   <ord> <ord>   <dbl> <dbl> <int> <dbl> <dbl> <dbl>
  1  0.21 Premium E     SI1      59.8    61   326  3.89  3.84  2.31
  > diamonds[,2,drop=F]
  # A tibble: 53,940 x 1
     cut      
     <ord>    
   1 Ideal    
   2 Premium  
   3 Good     
   4 Premium  
   5 Good     
   6 Very Good
   7 Very Good
   8 Very Good
   9 Fair     
  10 Very Good
  # ... with 53,930 more rows
  > diamonds[,colnames(diamonds)]
  # A tibble: 53,940 x 10
     carat cut       color clarity depth table price     x     y     z
     <dbl> <ord>     <ord> <ord>   <dbl> <dbl> <int> <dbl> <dbl> <dbl>
   1 0.23  Ideal     E     SI2      61.5    55   326  3.95  3.98  2.43
   2 0.21  Premium   E     SI1      59.8    61   326  3.89  3.84  2.31
   3 0.23  Good      E     VS1      56.9    65   327  4.05  4.07  2.31
   4 0.290 Premium   I     VS2      62.4    58   334  4.2   4.23  2.63
   5 0.31  Good      J     SI2      63.3    58   335  4.34  4.35  2.75
   6 0.24  Very Good J     VVS2     62.8    57   336  3.94  3.96  2.48
   7 0.24  Very Good I     VVS1     62.3    57   336  3.95  3.98  2.47
   8 0.26  Very Good H     SI1      61.9    55   337  4.07  4.11  2.53
   9 0.22  Fair      E     VS2      65.1    61   337  3.87  3.78  2.49
  10 0.23  Very Good H     VS1      59.4    61   338  4     4.05  2.39
  # ... with 53,930 more rows
  > colnames(diamonds)
   [1] "carat"   "cut"     "color"   "clarity" "depth"   "table"   "price"   "x"       "y"       "z"      
  > diamonds[,grep("^c",colnames(diamonds))] # C로 시작하는 열 이름 가져오기
  # A tibble: 53,940 x 4
     carat cut       color clarity
     <dbl> <ord>     <ord> <ord>  
   1 0.23  Ideal     E     SI2    
   2 0.21  Premium   E     SI1    
   3 0.23  Good      E     VS1    
   4 0.290 Premium   I     VS2    
   5 0.31  Good      J     SI2    
   6 0.24  Very Good J     VVS2   
   7 0.24  Very Good I     VVS1   
   8 0.26  Very Good H     SI1    
   9 0.22  Fair      E     VS2    
  10 0.23  Very Good H     VS1    
  # ... with 53,930 more rows
  > diamonds[,grep("c",colnames(diamonds))] # C가포함된 열 이름 가져오기
  # A tibble: 53,940 x 5
     carat cut       color clarity price
     <dbl> <ord>     <ord> <ord>   <int>
   1 0.23  Ideal     E     SI2       326
   2 0.21  Premium   E     SI1       326
   3 0.23  Good      E     VS1       327
   4 0.290 Premium   I     VS2       334
   5 0.31  Good      J     SI2       335
   6 0.24  Very Good J     VVS2      336
   7 0.24  Very Good I     VVS1      336
   8 0.26  Very Good H     SI1       337
   9 0.22  Fair      E     VS2       337
  10 0.23  Very Good H     VS1       338
  # ... with 53,930 more rows
  > diamonds[,grep("e$",colnames(diamonds))]  # e로 끝나는 열 이름 가져오기
  # A tibble: 53,940 x 2
     table price
     <dbl> <int>
   1    55   326
   2    61   326
   3    65   327
   4    58   334
   5    58   335
   6    57   336
   7    57   336
   8    55   337
   9    61   337
  10    61   338
  # ... with 53,930 more rows
  > 
  > diamonds[,c("cut","price")]
  # A tibble: 53,940 x 2
     cut       price
     <ord>     <int>
   1 Ideal       326
   2 Premium     326
   3 Good        327
   4 Premium     334
   5 Good        335
   6 Very Good   336
   7 Very Good   336
   8 Very Good   337
   9 Fair        337
  10 Very Good   338
  # ... with 53,930 more rows
…
  
  ```



#### 2) 행 추출하기

- ```R
  > diamonds[diamonds$price >= 18000,]
  # A tibble: 312 x 10
     carat cut       color clarity depth table price     x     y     z
     <dbl> <ord>     <ord> <ord>   <dbl> <dbl> <int> <dbl> <dbl> <dbl>
   1  2.16 Ideal     G     SI2      62.5  54.2 18001  8.23  8.27  5.16
   2  2.09 Premium   F     SI2      61.7  59   18002  8.23  8.21  5.07
   3  2.18 Premium   G     SI2      61.9  60   18003  8.29  8.24  5.12
   4  2.06 Very Good G     SI2      62.3  59   18005  8.07  8.2   5.07
   5  2.25 Premium   D     SI2      60.4  59   18007  8.54  8.48  5.13
   6  1.76 Very Good G     VS1      62.8  55.4 18014  7.7   7.74  4.85
   7  2.05 Ideal     G     SI2      61.6  56   18017  8.11  8.16  5.01
   8  5.01 Fair      J     I1       65.5  59   18018 10.7  10.5   6.98
   9  2.51 Premium   J     VS2      62.2  58   18020  8.73  8.67  5.41
  10  2    Good      H     VS2      63.8  59   18023  7.88  8.01  5.07
  # ... with 302 more rows
…
