…
 9 audi         a4 quattro   1.8  1999     4 auto(l5)   4        16    25 p     compact
10 audi         a4 quattro   2    2008     4 manual(m6) 4        20    28 p     compact
11 audi         a4 quattro   2    2008     4 auto(s6)   4        19    27 p     compact
12 audi         a4 quattro   2.8  1999     6 auto(l5)   4        15    25 p     compact
13 audi         a4 quattro   2.8  1999     6 manual(m5) 4        17    25 p     compact
14 audi         a4 quattro   3.1  2008     6 auto(s6)   4        17    25 p     compact
15 audi         a4 quattro   3.1  2008     6 manual(m6) 4        15    25 p     compact
16 audi         a6 quattro   2.8  1999     6 auto(l5)   4        15    24 p     midsize
17 audi         a6 quattro   3.1  2008     6 auto(s6)   4        17    25 p     midsize
18 audi         a6 quattro   4.2  2008     8 auto(s6)   4        16    23 p     midsize
> mean(manu_audi$cty)
[1] 17.61111
> manu_toyota <- mpg2 %>% filter(manufacturer == "toyota")
> manu_toyota
# A tibble: 34 x 11
   manufacturer model       displ  year   cyl trans      drv     cty   hwy fl    class  
   <chr>        <chr>       <dbl> <int> <int> <chr>      <chr> <int> <int> <chr> <chr>  
 1 toyota       4runner 4wd   2.7  1999     4 manual(m5) 4        15    20 r     suv    
 2 toyota       4runner 4wd   2.7  1999     4 auto(l4)   4        16    20 r     suv    
 3 toyota       4runner 4wd   3.4  1999     6 auto(l4)   4        15    19 r     suv    
 4 toyota       4runner 4wd   3.4  1999     6 manual(m5) 4        15    17 r     suv    
 5 toyota       4runner 4wd   4    2008     6 auto(l5)   4        16    20 r     suv    
 6 toyota       4runner 4wd   4.7  2008     8 auto(l5)   4        14    17 r     suv    
 7 toyota       camry         2.2  1999     4 manual(m5) f        21    29 r     midsize
 8 toyota       camry         2.2  1999     4 auto(l4)   f        21    27 r     midsize
 9 toyota       camry         2.4  2008     4 manual(m5) f        21    31 r     midsize
10 toyota       camry         2.4  2008     4 auto(l5)   f        21    31 r     midsize
# ... with 24 more rows
…
