…
  > h2 <- hist(Temp, ylim = c(0,40))
  > text(h2$mids, h2$counts, labels = h2$counts, adj = c(0.5, -0.5)) 
  > 
  > # breaks는 히스토그램을 그리기 위해 데이터를 어떻게 나눌지를 지정하는 데 사용한다.
  > # 기본값은 Sturge로, n일 때 막대의 너비를 ⌈log2(n)+1⌉로 정한다.
  > # breaks에 데이터를 나눌 구분 값들을 저장한 벡터,
  > # 데이터를 나눌 구분 값들을 계산하는 함수 등을 대신 지정할 수 있다.
  > 
  > hist(Temp, breaks = 4)
  > hist(Temp, breaks = 10)
  > hist(Temp, xlim=c(50,100), breaks=c(55,60,70,80,100), col="red")
  > 
  > 
  > diamonds
  # A tibble: 53,940 x 10
     carat cut       color clarity depth table price     x     y     z
     <dbl> <ord>     <ord> <ord>   <dbl> <dbl> <int> <dbl> <dbl> <dbl>
   1 0.23  Ideal     E     SI2      61.5    55   326  3.95  3.98  2.43
   2 0.21  Premium   E     SI1      59.8    61   326  3.89  3.84  2.31
   3 0.23  Good      E     VS1      56.9    65   327  4.05  4.07  2.31
   4 0.290 Premium   I     VS2      62.4    58   334  4.2   4.23  2.63
   5 0.31  Good      J     SI2      63.3    58   335  4.34  4.35  2.75
   6 0.24  Very Good J     VVS2     62.8    57   336  3.94  3.96  2.48
   7 0.24  Very Good I     VVS1     62.3    57   336  3.95  3.98  2.47
   8 0.26  Very Good H     SI1      61.9    55   337  4.07  4.11  2.53
   9 0.22  Fair      E     VS2      65.1    61   337  3.87  3.78  2.49
  10 0.23  Very Good H     VS1      59.4    61   338  4     4.05  2.39
  # ... with 53,930 more rows
…
