…
출력 예)
year_month	city	price
201801		강남구 	2000000



- 나의 답(좋은 함수가 많으므로 꼭 살펴보긔. 특히 # 주석 잘 살펴볼 것

  - ```R
    > library(readxl)
    > # skip의 중요성!
    > a <- read_excel('apt_data/아파트(매매)_실거래가_201801.xlsx', skip = 16)
    > read_excel('apt_data/아파트(매매)_실거래가_201802.xlsx', skip = 16)
    # A tibble: 43,478 x 12
       시군구  번지  본번  부번  단지명  `전용면적(㎡)` 계약년월 계약일 `거래금액(만원)` 층    건축년도 도로명
       <chr>   <chr> <chr> <chr> <chr>   <chr>          <chr>    <chr>  <chr>            <chr> <chr>    <chr> 
     1 강원도 강릉~ 202   0202  0000  송정한신~ 59.8           201802   11~20  12,500           13    1997     경강로25~
     2 강원도 강릉~ 289   0289  0000  신도브래뉴~ 59.99          201802   1~10   16,200           3     2005     경강로25~
     3 강원도 강릉~ 289   0289  0000  신도브래뉴~ 84.99          201802   1~10   27,200           9     2005     경강로25~
     4 강원도 강릉~ 289   0289  0000  신도브래뉴~ 59.99          201802   11~20  18,500           12    2005     경강로25~
     5 강원도 강릉~ 289   0289  0000  신도브래뉴~ 84.99          201802   21~28  27,000           11    2005     경강로25~
     6 강원도 강릉~ 1982  1982  0000  강릉교동롯데~ 135.1727       201802   1~10   32,000           3     2009     화부산로9~
     7 강원도 강릉~ 1982  1982  0000  강릉교동롯데~ 163.9852       201802   21~28  44,500           12    2009     화부산로9~
     8 강원도 강릉~ 1983  1983  0000  강릉교동롯데~ 84.9855        201802   11~20  30,200           14    2009     화부산로1~
     9 강원도 강릉~ 1983  1983  0000  강릉교동롯데~ 135.1008       201802   21~28  37,400           15    2009     화부산로1~
    10 강원도 강릉~ 1750  1750  0000  교동1주공~ 84.84          201802   1~10   21,000           8     1999     가작로
    # ... with 43,468 more rows
…
     $ 본번          : chr  "0202" "0289" "0289" "0289" ...
     $ 부번          : chr  "0000" "0000" "0000" "0000" ...
     $ 단지명        : chr  "송정한신" "신도브래뉴" "신도브래뉴" "신도브래뉴" ...
     $ 전용면적(㎡)  : chr  "84.945" "59.99" "84.99" "59.99" ...
     $ 계약년월      : chr  "201801" "201801" "201801" "201801" ...
     $ 계약일        : chr  "1~10" "1~10" "1~10" "1~10" ...
     $ 거래금액(만원): chr  "17,500" "17,900" "27,300" "17,900" ...
     $ 층            : chr  "10" "12" "9" "12" ...
     $ 건축년도      : chr  "1997" "2005" "2005" "2005" ...
     $ 도로명        : chr  "경강로2539번길" "경강로2539번길" "경강로2539번길" "경강로2539번길" ...
    > APTList <- list(APT1, APT2)
    > # ★★★ APT1, APT2...객체를 사용하기 위해서는 "APT1", "APT2"..와 같은 문자열을 사용할 수 없다.
    > # 이렇듯 문자열을 객체(실제변수)로 바꿔주는 것이 eval(parse()) 이다. 책 262p
    > eval(parse(text = "APT1"))
    # A tibble: 50,617 x 12
       시군구  번지  본번  부번  단지명  `전용면적(㎡)` 계약년월 계약일 `거래금액(만원)` 층    건축년도 도로명
       <chr>   <chr> <chr> <chr> <chr>   <chr>          <chr>    <chr>  <chr>            <chr> <chr>    <chr> 
     1 강원도 강릉~ 202   0202  0000  송정한신~ 84.945         201801   1~10   17,500           10    1997     경강로25~
     2 강원도 강릉~ 289   0289  0000  신도브래뉴~ 59.99          201801   1~10   17,900           12    2005     경강로25~
     3 강원도 강릉~ 289   0289  0000  신도브래뉴~ 84.99          201801   1~10   27,300           9     2005     경강로25~
     4 강원도 강릉~ 289   0289  0000  신도브래뉴~ 59.99          201801   1~10   17,900           12    2005     경강로25~
     5 강원도 강릉~ 289   0289  0000  신도브래뉴~ 59.99          201801   1~10   18,800           15    2005     경강로25~
     6 강원도 강릉~ 289   0289  0000  신도브래뉴~ 84.99          201801   11~20  27,800           15    2005     경강로25~
     7 강원도 강릉~ 289   0289  0000  신도브래뉴~ 59.99          201801   21~31  19,500           11    2005     경강로25~
     8 강원도 강릉~ 289   0289  0000  신도브래뉴~ 59.99          201801   21~31  17,000           3     2005     경강로25~
     9 강원도 강릉~ 289   0289  0000  신도브래뉴~ 84.99          201801   21~31  28,000           9     2005     경강로25~
    10 강원도 강릉~ 1982  1982  0000  강릉교동롯데~ 164.0098       201801   21~31  41,000           8     2009     화부산로9~
    # ... with 50,607 more rows
…
    1 강원도 강릉시 견~ 202   0202  0000  송정한신 84.945         201801   1~10   17,500      10    1997     경강로2539~
    2 강원도 강릉시 견~ 289   0289  0000  신도브래뉴~ 59.99          201801   1~10   17,900      12    2005     경강로2539~
    3 강원도 강릉시 견~ 289   0289  0000  신도브래뉴~ 84.99          201801   1~10   27,300      9     2005     경강로2539~
    4 강원도 강릉시 견~ 289   0289  0000  신도브래뉴~ 59.99          201801   1~10   17,900      12    2005     경강로2539~
    5 강원도 강릉시 견~ 289   0289  0000  신도브래뉴~ 59.99          201801   1~10   18,800      15    2005     경강로2539~
    6 강원도 강릉시 견~ 289   0289  0000  신도브래뉴~ 84.99          201801   11~20  27,800      15    2005     경강로2539~
    > # transaction은 지금 integer가 아니라 character이다. 게다가 ","가 있어서 바로 integer 변환이 안된다.
    > class(tmpApt$transaction)
    [1] "character"
    > # 우선 ","를 제거해준다.
    > tmpApt$transaction <- str_replace(string=tmpApt$transaction, pattern=",", replacement="")
    > tmpApt$transaction <- as.integer(tmpApt$transaction)
    > # 서울특별시에 해당하는 구 모두 표현할 때
    > tmpApt %>% select(city, transaction) %>% filter(str_sub(string = city, start = 1, end = 5) == "서울특별시") %>% group_by(city) %>% summarise(avgAmount = mean(transaction))
    # A tibble: 313 x 2
       city                       avgAmount
       <chr>                          <dbl>
     1 서울특별시 강남구 개포동     140361.
     2 서울특별시 강남구 논현동     113066.
     3 서울특별시 강남구 대치동     182890.
     4 서울특별시 강남구 도곡동     158921.
     5 서울특별시 강남구 삼성동     162094.
     6 서울특별시 강남구 세곡동      96993.
     7 서울특별시 강남구 수서동     103665.
     8 서울특별시 강남구 신사동     115405 
     9 서울특별시 강남구 압구정동   258963.
    10 서울특별시 강남구 역삼동     102603.
    # ... with 303 more rows
…
