# 딥러닝 기반 빅데이터 분석과정 7일차

## 1. dplyr 패키지 다루기 (이어서)

### (1) filter 인용을 풀어서 사용

```R
> theCol <- "cut"
> theCut <- "Ideal"
> library(rlang)
> diamonds %>% filter(UQE(as.name(theCol)) == theCut)
# A tibble: 21,551 x 10
   carat cut   color clarity depth table price     x     y     z
   <dbl> <ord> <ord> <ord>   <dbl> <dbl> <int> <dbl> <dbl> <dbl>
 1  0.23 Ideal E     SI2      61.5    55   326  3.95  3.98  2.43
 2  0.23 Ideal J     VS1      62.8    56   340  3.93  3.9   2.46
 3  0.31 Ideal J     SI2      62.2    54   344  4.35  4.37  2.71
 4  0.3  Ideal I     SI2      62      54   348  4.31  4.34  2.68
 5  0.33 Ideal I     SI2      61.8    55   403  4.49  4.51  2.78
 6  0.33 Ideal I     SI2      61.2    56   403  4.49  4.5   2.75
 7  0.33 Ideal J     SI1      61.1    56   403  4.49  4.55  2.76
 8  0.23 Ideal G     VS1      61.9    54   404  3.93  3.95  2.44
 9  0.32 Ideal I     SI1      60.9    55   404  4.45  4.48  2.72
10  0.3  Ideal I     SI2      61      59   405  4.3   4.33  2.63
# ... with 21,541 more rows
```
…
  2 Good         3929.
  3 Very Good    3982.
  4 Premium      4584.
  5 Ideal        3458.
  > diamonds %>% group_by(cut) %>% summarize(AvgPrice = mean(price), SumCarat = sum(carat))
  # A tibble: 5 x 3
    cut       AvgPrice SumCarat
    <ord>        <dbl>    <dbl>
  1 Fair         4359.    1684.
  2 Good         3929.    4166.
  3 Very Good    3982.    9743.
  4 Premium      4584.   12301.
  5 Ideal        3458.   15147.
  > diamonds %>% group_by(cut, color) %>% summarize(AvgPrice = mean(price), SumCarat = sum(carat))
  # A tibble: 35 x 4
  # Groups:   cut [?]
     cut   color AvgPrice SumCarat
     <ord> <ord>    <dbl>    <dbl>
   1 Fair  D        4291.     150.
   2 Fair  E        3682.     192.
   3 Fair  F        3827.     282.
   4 Fair  G        4239.     321.
   5 Fair  H        5136.     369.
   6 Fair  I        4685.     210.
   7 Fair  J        4976.     160.
   8 Good  D        3405.     493.
   9 Good  E        3424.     695.
  10 Good  F        3496.     705.
  # ... with 25 more rows
  ```
…
